Accessing and analysing the OpenAIRE Research Graph data dumps • openairegraph
…
After downloading it, the file can be imported into R using the jsonlite package (Ooms 2014). The following example shows that each line contains a record identifier and the corresponding Base64-encoded XML file. Base64 is a standard that allows file compression in a text-based format.

library(jsonlite) # tools to work with json files
library(tidyverse) # tools from the tidyverse useful for data analysis
# download the file from Zenodo and store it locally
dir.create("data")
download.file(
  url = "https://zenodo.org/record/3516918/files/h2020_results.gz",
  destfile = "data/h2020_results.gz"
)
oaire <- jsonlite::stream_in(file("data/h2020_results.gz"), verbose = FALSE) %>%
  tibble::as_tibble()
oaire
#> # A tibble: 92,218 x 2
#>    `_id`$`$oid`        body$`$binary`                                   $`$type`
#>    <chr>               <chr>                                            <chr>   
#>  1 5dbc22f81e82127b58… UEsDBBQACAgIAIRiYU8AAAAAAAAAAAAAAAAEAAAAYm9kee1… 00      
#>  2 5dbc22f9b531c546e8… UEsDBBQACAgIAIRiYU8AAAAAAAAAAAAAAAAEAAAAYm9kee0… 00      
#>  3 5dbc22fa45e3122d97… UEsDBBQACAgIAIViYU8AAAAAAAAAAAAAAAAEAAAAYm9kee1… 00      
#>  4 5dbc22fa45e3122d97… UEsDBBQACAgIAIViYU8AAAAAAAAAAAAAAAAEAAAAYm9kee1… 00      
#>  5 5dbc22fa4e0c061a4d… UEsDBBQACAgIAIViYU8AAAAAAAAAAAAAAAAEAAAAYm9kee1… 00      
#>  6 5dbc22fb81f3c12c00… UEsDBBQACAgIAIViYU8AAAAAAAAAAAAAAAAEAAAAYm9kee1… 00      
#>  7 5dbc22fb895be12461… UEsDBBQACAgIAIViYU8AAAAAAAAAAAAAAAAEAAAAYm9kee2… 00      
#>  8 5dbc22fbe56570673e… UEsDBBQACAgIAIViYU8AAAAAAAAAAAAAAAAEAAAAYm9kee1… 00      
#>  9 5dbc22fc81f3c12bfe… UEsDBBQACAgIAIViYU8AAAAAAAAAAAAAAAAEAAAAYm9kee1… 00      
#> 10 5dbc22fcb531c546e8… UEsDBBQACAgIAIZiYU8AAAAAAAAAAAAAAAAEAAAAYm9kee1… 00      
#> # … with 92,208 more rows
…
